^C:\WORKSPACE\SOURCES\OBJECTFIGHTERS\OBJECTFIGHTERS\STDAFX.CPP
C:\WORKSPACE\TOOLS\VISUALSTUDIO2012\VC\BIN\1033\CLUI.DLL
C:\WINDOWS\GLOBALIZATION\SORTING\SORTDEFAULT.NLS
C:\WORKSPACE\TOOLS\VISUALSTUDIO2012\COMMON7\IDE\MSPDBSRV.EXE
C:\WINDOWS\SYSTEM32\TZRES.DLL
C:\WORKSPACE\SOURCES\OBJECTFIGHTERS\OBJECTFIGHTERS\STDAFX.H
C:\WORKSPACE\SOURCES\OBJECTFIGHTERS\OBJECTFIGHTERS\TARGETVER.H
C:\PROGRAM FILES (X86)\WINDOWS KITS\8.0\INCLUDE\SHARED\SDKDDKVER.H
C:\WORKSPACE\TOOLS\VISUALSTUDIO2012\VC\INCLUDE\STDIO.H
C:\WORKSPACE\TOOLS\VISUALSTUDIO2012\VC\INCLUDE\CRTDEFS.H
C:\WORKSPACE\TOOLS\VISUALSTUDIO2012\VC\INCLUDE\SAL.H
C:\WORKSPACE\TOOLS\VISUALSTUDIO2012\VC\INCLUDE\CONCURRENCYSAL.H
C:\WORKSPACE\TOOLS\VISUALSTUDIO2012\VC\INCLUDE\VADEFS.H
C:\WORKSPACE\TOOLS\VISUALSTUDIO2012\VC\INCLUDE\SWPRINTF.INL
C:\WORKSPACE\TOOLS\VISUALSTUDIO2012\VC\INCLUDE\TCHAR.H
C:\WORKSPACE\TOOLS\VISUALSTUDIO2012\VC\INCLUDE\WCHAR.H
C:\WORKSPACE\TOOLS\VISUALSTUDIO2012\VC\INCLUDE\WTIME.INL
C:\WORKSPACE\TOOLS\VISUALSTUDIO2012\VC\INCLUDE\STRING
C:\WORKSPACE\TOOLS\VISUALSTUDIO2012\VC\INCLUDE\ITERATOR
C:\WORKSPACE\TOOLS\VISUALSTUDIO2012\VC\INCLUDE\ISTREAM
C:\WORKSPACE\TOOLS\VISUALSTUDIO2012\VC\INCLUDE\OSTREAM
C:\WORKSPACE\TOOLS\VISUALSTUDIO2012\VC\INCLUDE\IOS
C:\WORKSPACE\TOOLS\VISUALSTUDIO2012\VC\INCLUDE\XLOCNUM
C:\WORKSPACE\TOOLS\VISUALSTUDIO2012\VC\INCLUDE\CLIMITS
C:\WORKSPACE\TOOLS\VISUALSTUDIO2012\VC\INCLUDE\YVALS.H
C:\WORKSPACE\TOOLS\VISUALSTUDIO2012\VC\INCLUDE\XKEYCHECK.H
C:\WORKSPACE\TOOLS\VISUALSTUDIO2012\VC\INCLUDE\USE_ANSI.H
C:\WORKSPACE\TOOLS\VISUALSTUDIO2012\VC\INCLUDE\LIMITS.H
C:\WORKSPACE\TOOLS\VISUALSTUDIO2012\VC\INCLUDE\CMATH
C:\WORKSPACE\TOOLS\VISUALSTUDIO2012\VC\INCLUDE\MATH.H
C:\WORKSPACE\TOOLS\VISUALSTUDIO2012\VC\INCLUDE\XTGMATH.H
C:\WORKSPACE\TOOLS\VISUALSTUDIO2012\VC\INCLUDE\XTR1COMMON
C:\WORKSPACE\TOOLS\VISUALSTUDIO2012\VC\INCLUDE\CSTDIO
C:\WORKSPACE\TOOLS\VISUALSTUDIO2012\VC\INCLUDE\CSTDLIB
C:\WORKSPACE\TOOLS\VISUALSTUDIO2012\VC\INCLUDE\STDLIB.H
C:\WORKSPACE\TOOLS\VISUALSTUDIO2012\VC\INCLUDE\STREAMBUF
C:\WORKSPACE\TOOLS\VISUALSTUDIO2012\VC\INCLUDE\XIOSBASE
C:\WORKSPACE\TOOLS\VISUALSTUDIO2012\VC\INCLUDE\XLOCALE
C:\WORKSPACE\TOOLS\VISUALSTUDIO2012\VC\INCLUDE\CSTRING
C:\WORKSPACE\TOOLS\VISUALSTUDIO2012\VC\INCLUDE\STRING.H
C:\WORKSPACE\TOOLS\VISUALSTUDIO2012\VC\INCLUDE\STDEXCEPT
C:\WORKSPACE\TOOLS\VISUALSTUDIO2012\VC\INCLUDE\EXCEPTION
C:\WORKSPACE\TOOLS\VISUALSTUDIO2012\VC\INCLUDE\XSTDDEF
C:\WORKSPACE\TOOLS\VISUALSTUDIO2012\VC\INCLUDE\CSTDDEF
C:\WORKSPACE\TOOLS\VISUALSTUDIO2012\VC\INCLUDE\STDDEF.H
C:\WORKSPACE\TOOLS\VISUALSTUDIO2012\VC\INCLUDE\EH.H
C:\WORKSPACE\TOOLS\VISUALSTUDIO2012\VC\INCLUDE\MALLOC.H
C:\WORKSPACE\TOOLS\VISUALSTUDIO2012\VC\INCLUDE\XSTRING
C:\WORKSPACE\TOOLS\VISUALSTUDIO2012\VC\INCLUDE\XMEMORY0
C:\WORKSPACE\TOOLS\VISUALSTUDIO2012\VC\INCLUDE\LIMITS
C:\WORKSPACE\TOOLS\VISUALSTUDIO2012\VC\INCLUDE\YMATH.H
C:\WORKSPACE\TOOLS\VISUALSTUDIO2012\VC\INCLUDE\CFLOAT
C:\WORKSPACE\TOOLS\VISUALSTUDIO2012\VC\INCLUDE\FLOAT.H
C:\WORKSPACE\TOOLS\VISUALSTUDIO2012\VC\INCLUDE\CRTWRN.H
C:\WORKSPACE\TOOLS\VISUALSTUDIO2012\VC\INCLUDE\CWCHAR
C:\WORKSPACE\TOOLS\VISUALSTUDIO2012\VC\INCLUDE\NEW
C:\WORKSPACE\TOOLS\VISUALSTUDIO2012\VC\INCLUDE\XUTILITY
C:\WORKSPACE\TOOLS\VISUALSTUDIO2012\VC\INCLUDE\UTILITY
C:\WORKSPACE\TOOLS\VISUALSTUDIO2012\VC\INCLUDE\IOSFWD
C:\WORKSPACE\TOOLS\VISUALSTUDIO2012\VC\INCLUDE\CRTDBG.H
C:\WORKSPACE\TOOLS\VISUALSTUDIO2012\VC\INCLUDE\TYPE_TRAITS
C:\WORKSPACE\TOOLS\VISUALSTUDIO2012\VC\INCLUDE\XREFWRAP
C:\WORKSPACE\TOOLS\VISUALSTUDIO2012\VC\INCLUDE\XATOMIC0.H
C:\WORKSPACE\TOOLS\VISUALSTUDIO2012\VC\INCLUDE\INTRIN.H
C:\WORKSPACE\TOOLS\VISUALSTUDIO2012\VC\INCLUDE\SETJMP.H
C:\WORKSPACE\TOOLS\VISUALSTUDIO2012\VC\INCLUDE\IMMINTRIN.H
C:\WORKSPACE\TOOLS\VISUALSTUDIO2012\VC\INCLUDE\WMMINTRIN.H
C:\WORKSPACE\TOOLS\VISUALSTUDIO2012\VC\INCLUDE\NMMINTRIN.H
C:\WORKSPACE\TOOLS\VISUALSTUDIO2012\VC\INCLUDE\SMMINTRIN.H
C:\WORKSPACE\TOOLS\VISUALSTUDIO2012\VC\INCLUDE\TMMINTRIN.H
C:\WORKSPACE\TOOLS\VISUALSTUDIO2012\VC\INCLUDE\PMMINTRIN.H
C:\WORKSPACE\TOOLS\VISUALSTUDIO2012\VC\INCLUDE\EMMINTRIN.H
C:\WORKSPACE\TOOLS\VISUALSTUDIO2012\VC\INCLUDE\XMMINTRIN.H
C:\WORKSPACE\TOOLS\VISUALSTUDIO2012\VC\INCLUDE\MMINTRIN.H
C:\WORKSPACE\TOOLS\VISUALSTUDIO2012\VC\INCLUDE\AMMINTRIN.H
C:\WORKSPACE\TOOLS\VISUALSTUDIO2012\VC\INCLUDE\MM3DNOW.H
C:\WORKSPACE\TOOLS\VISUALSTUDIO2012\VC\INCLUDE\TYPEINFO
C:\WORKSPACE\TOOLS\VISUALSTUDIO2012\VC\INCLUDE\XLOCINFO
C:\WORKSPACE\TOOLS\VISUALSTUDIO2012\VC\INCLUDE\XLOCINFO.H
C:\WORKSPACE\TOOLS\VISUALSTUDIO2012\VC\INCLUDE\CTYPE.H
C:\WORKSPACE\TOOLS\VISUALSTUDIO2012\VC\INCLUDE\LOCALE.H
C:\WORKSPACE\TOOLS\VISUALSTUDIO2012\VC\INCLUDE\XDEBUG
C:\WORKSPACE\TOOLS\VISUALSTUDIO2012\VC\INCLUDE\XMEMORY
C:\WORKSPACE\TOOLS\VISUALSTUDIO2012\VC\INCLUDE\XFACET
C:\WORKSPACE\TOOLS\VISUALSTUDIO2012\VC\INCLUDE\SYSTEM_ERROR
C:\WORKSPACE\TOOLS\VISUALSTUDIO2012\VC\INCLUDE\CERRNO
C:\WORKSPACE\TOOLS\VISUALSTUDIO2012\VC\INCLUDE\ERRNO.H
C:\WORKSPACE\TOOLS\VISUALSTUDIO2012\VC\INCLUDE\SHARE.H
^C:\WORKSPACE\SOURCES\OBJECTFIGHTERS\OBJECTFIGHTERS\OBJECTFIGHTERS.CPP
C:\WORKSPACE\SOURCES\OBJECTFIGHTERS\OBJECTFIGHTERS\DEBUG\OBJECTFIGHTERS.PCH
C:\WORKSPACE\SOURCES\OBJECTFIGHTERS\OBJECTFIGHTERS\HUMAN.H
C:\WORKSPACE\SOURCES\OBJECTFIGHTERS\OBJECTFIGHTERS\WEAPON.H
C:\WORKSPACE\TOOLS\VISUALSTUDIO2012\VC\BIN\1033\CLUI.DLL
C:\WINDOWS\GLOBALIZATION\SORTING\SORTDEFAULT.NLS
C:\WORKSPACE\TOOLS\VISUALSTUDIO2012\COMMON7\IDE\MSPDBSRV.EXE
C:\WINDOWS\SYSTEM32\TZRES.DLL
C:\WORKSPACE\SOURCES\OBJECTFIGHTERS\OBJECTFIGHTERS\MAGICIAN.H
C:\WORKSPACE\SOURCES\OBJECTFIGHTERS\OBJECTFIGHTERS\FIGHTER.H
^C:\WORKSPACE\SOURCES\OBJECTFIGHTERS\OBJECTFIGHTERS\HUMAN.CPP
C:\WORKSPACE\SOURCES\OBJECTFIGHTERS\OBJECTFIGHTERS\DEBUG\OBJECTFIGHTERS.PCH
C:\WORKSPACE\SOURCES\OBJECTFIGHTERS\OBJECTFIGHTERS\HUMAN.H
C:\WORKSPACE\SOURCES\OBJECTFIGHTERS\OBJECTFIGHTERS\WEAPON.H
^C:\WORKSPACE\SOURCES\OBJECTFIGHTERS\OBJECTFIGHTERS\WEAPON.CPP
C:\WORKSPACE\SOURCES\OBJECTFIGHTERS\OBJECTFIGHTERS\DEBUG\OBJECTFIGHTERS.PCH
C:\WORKSPACE\SOURCES\OBJECTFIGHTERS\OBJECTFIGHTERS\WEAPON.H
C:\WORKSPACE\TOOLS\VISUALSTUDIO2012\VC\BIN\1033\CLUI.DLL
C:\WINDOWS\GLOBALIZATION\SORTING\SORTDEFAULT.NLS
C:\WINDOWS\SYSTEM32\TZRES.DLL
^C:\WORKSPACE\SOURCES\OBJECTFIGHTERS\OBJECTFIGHTERS\MAGICIAN.CPP
C:\WORKSPACE\SOURCES\OBJECTFIGHTERS\OBJECTFIGHTERS\DEBUG\OBJECTFIGHTERS.PCH
C:\WORKSPACE\SOURCES\OBJECTFIGHTERS\OBJECTFIGHTERS\MAGICIAN.H
C:\WORKSPACE\SOURCES\OBJECTFIGHTERS\OBJECTFIGHTERS\HUMAN.H
C:\WORKSPACE\SOURCES\OBJECTFIGHTERS\OBJECTFIGHTERS\WEAPON.H
^C:\WORKSPACE\SOURCES\OBJECTFIGHTERS\OBJECTFIGHTERS\FIGHTER.CPP
C:\WORKSPACE\SOURCES\OBJECTFIGHTERS\OBJECTFIGHTERS\DEBUG\OBJECTFIGHTERS.PCH
C:\WORKSPACE\SOURCES\OBJECTFIGHTERS\OBJECTFIGHTERS\FIGHTER.H
C:\WORKSPACE\SOURCES\OBJECTFIGHTERS\OBJECTFIGHTERS\HUMAN.H
C:\WORKSPACE\SOURCES\OBJECTFIGHTERS\OBJECTFIGHTERS\WEAPON.H
